<?xml version="1.0"?>
<robot xmlns:xacro="http://www.ros.org/wiki/xacro">
	<joint name="laser_joint" type="fixed">
	    <axis xyz="0 1 0" />
	    <origin xyz="${sick_laser_x} ${sick_laser_y} ${sick_laser_z}" rpy="${sick_laser_roll} ${sick_laser_pitch} ${sick_laser_yaw}"/>
	    <parent link="${sick_laser_parent}"/>
	    <child link="laser_link"/>
	</joint>

	<link name="laser_link">
	  	<collision>
	      <origin xyz="-0.1 0 -0.15" rpy="0 0 0"/>
	      <geometry>
		    <mesh filename="package://pioneer3at_description/meshes/sick_laser.stl"/>
	      </geometry>
	    </collision>

	    <visual>
	      <origin xyz="-0.1 0 -0.15" rpy="0 0 0"/>
	      <geometry>
	        <mesh filename="package://pioneer3at_description/meshes/sick_laser.stl"/>
	      </geometry>
	      	<material name="LaserBlue">
				<color rgba="0.0 0.0 0.8 1.0"/>
			</material>
	    </visual>

	    <inertial>
	      <mass value="1e-5" />
	      <origin xyz="0 0 0" rpy="0 0 0"/>
	      <inertia ixx="1e-6" ixy="0" ixz="0" iyy="1e-6" iyz="0" izz="1e-6" />
	    </inertial>
	</link>

	<joint name="laser_mount_joint" type="fixed">
		<axis xyz="0 1 0" />
	    <origin xyz="${sick_laser_x-0.1} ${sick_laser_y} ${sick_laser_z-0.15}" rpy="${sick_laser_roll} ${sick_laser_pitch} ${sick_laser_yaw}"/>
	    <parent link="${sick_laser_parent}"/>
	    <child link="laser_mount_link"/>
	</joint>

	<link name="laser_mount_link">
	  	<collision>
			<origin xyz="0 0 0" rpy="0 0 0"/>
			<geometry>
				<mesh filename="package://pioneer3at_description/meshes/sick_mount.stl"/>
			</geometry>
	    </collision>

	    <visual>
			<origin xyz="0 0 0" rpy="0 0 0"/>
			<geometry>
				<mesh filename="package://pioneer3at_description/meshes/sick_mount.stl"/>
			</geometry>
			<material name="MountBlack">
				<color rgba="0.038 0.038 0.038 1.0"/>
			</material>
	    </visual>
	</link>

	<gazebo reference="laser_link">
		<sensor type="gpu_ray" name="laser_sensor">
			<pose>0 0 0 0 0 0</pose>
			<visualize>true</visualize>
			<update_rate>40</update_rate>
			<ray>
				<scan>
				  <horizontal>
				    <samples>720</samples>
				    <resolution>1</resolution>
				    <min_angle>-1.570796</min_angle>
				    <max_angle>1.570796</max_angle>
				  </horizontal>
				</scan>
				<range>
				  <min>0.10</min>
				  <max>30.0</max>
				  <resolution>0.01</resolution>
				</range>
				<noise>
				  <type>gaussian</type>
				  <mean>0.0</mean>
				  <stddev>0.01</stddev>
				</noise>
			</ray>
			<plugin name="gazebo_ros_head_hokuyo_controller" filename="libgazebo_ros_gpu_laser.so">
			<topicName>${namespace}/laser/scan</topicName>
			<frameName>laser_link</frameName>
			</plugin>
		</sensor>
		<material>Gazebo/Blue</material>
	</gazebo>

	<gazebo reference="laser_mount_link">
		<material>Gazebo/Black</material>
	</gazebo>
</robot>